Week 2: Model Fitting with Linear Regression - BNU-Statistics with R
…
## [1] 2.394685

I am sure that you are familiar with that as it is something we can get from any statistical program, now, let’s look at how to deal with more information and different results.

#library(tidyverse)
storms[,c(1,2,10,11)]%>% #dataset and variables we will work with [row,column] use c(for selecting multiple columns)
  dplyr::group_by(name,year)%>% #group by name and year
  dplyr::summarise_all(funs(mean(.,na.rm = T), #use funs( to get multiple stimators)
                           sd(.),
                           var(.), #sd^2
                           plotrix::std.error(.),
                           observations=length(.))) # we can name the variables directly  length tells you how many observations in each group

## # A tibble: 426 x 12
## # Groups:   name [198]
##    name   year wind_mean pressure_mean wind_sd pressure_sd wind_var pressure_var
##    <chr> <dbl>     <dbl>         <dbl>   <dbl>       <dbl>    <dbl>        <dbl>
##  1 AL01~  1993      27.5         1000.    2.67       1.55      7.14        2.41 
##  2 AL01~  2000      25           1009.    0          0.957     0           0.917
##  3 AL02~  1992      29           1007.    2.24       0.894     5           0.8  
##  4 AL02~  1994      24.2         1016.    5.85       0.753    34.2         0.567
##  5 AL02~  1999      28.8         1005.    2.5        0.957     6.25        0.917
##  6 AL02~  2000      29.2         1009.    1.95       0.515     3.79        0.265
##  7 AL02~  2001      25           1011     0          0.707     0           0.5  
##  8 AL02~  2003      30           1009.    0          0.957     0           0.917
##  9 AL02~  2006      38           1002.    5.70       4.04     32.5        16.3  
## 10 AL03~  1987      21.2         1010.    8.71       2.44     75.8         5.97 
## # ... with 416 more rows, and 4 more variables:
## #   `wind_plotrix::std.error` <dbl>, `pressure_plotrix::std.error` <dbl>,
## #   wind_observations <int>, pressure_observations <int>
…
